Download financial data from Yahoo Finance — yf_get • yfR
…
print(df_yf)
#> # A tibble: 44 × 11
#>    ticker ref_date   price_open price_high price_low price_close  volume
#>  * <chr>  <date>          <dbl>      <dbl>     <dbl>       <dbl>   <dbl>
#>  1 MMM    2024-02-20       91.1       92.5      90.5        91.8 4326600
#>  2 MMM    2024-02-21       91.6       92.0      91.0        91.7 3399300
#>  3 MMM    2024-02-22       91.6       92.4      91.1        92.2 4250700
#>  4 MMM    2024-02-23       92.4       92.9      91.9        92.6 3155700
#>  5 MMM    2024-02-26       92.2       92.5      91.4        91.8 3272900
#>  6 MMM    2024-02-27       92         92.3      91.5        92.3 2288300
#>  7 MMM    2024-02-28       92         92.6      91.4        91.5 2962400
#>  8 MMM    2024-02-29       92         92.3      91.4        92.1 5158400
#>  9 MMM    2024-03-01       92.0       92.0      90.9        91.9 3396100
#> 10 MMM    2024-03-04       91.1       91.8      90.5        91.4 5584200
#> # ℹ 34 more rows
#> # ℹ 4 more variables: price_adjusted <dbl>, ret_adjusted_prices <dbl>,
#> #   ret_closing_prices <dbl>, cumret_adjusted_prices <dbl>
…
